{
  "page": 1,
  "pageSize": 10,
  "totalItems": 173913,
  "totalPages": 17392,
  "skipped": 0,
  "sort": {},
  "results": [
    {
      "user": null,
      "partner": null,
      "locationGroup": null,
      "activationCode": null,
      "mid": null,
      "name": "Mike & Ronda’s The Place",
      "address": "3518 E Route 66 Ste 107",
      "city": "Flagstaff",
      "state": "AZ",
      "zipcode": "86004",
      "categories": [],
      "geo": [-111.65477880755067, 35.19690232221063],
      "status": 10,
      "branchLink": "",
      "utc": "-08:00",
      "place": "59fbc1addf8da9ad57a5ed77",
      "paymentMethod": null,
      "shortDescription": null,
      "description": null,
      "trialExpirationWarning": false,
      "partner": false,
      "isPartnerSignup": false,
      "market": "5ba53a84f65a7d002da2098d",
      "secondaryMarket": null,
      "tertiaryMarket": null,
      "deleted": false,
      "_id": "59fbc1aedf8da9ad57a5ee6e",
      "__v": 0,
      "createdAt": "2020-04-28T21:26:44.360Z",
      "updatedAt": "2020-05-18T18:21:29.085Z",
      "phone": {
        "mobile": null,
        "work": "9287747008",
        "_id": "5ebde72bc6d18080ed050310"
      },
      "hours": [],
      "photos": [
        {
          "_id": "59fbc1ad5d92030001be6830",
          "isPrimary": true,
          "url": "https://ss3.4sqi.net/img/categories_v2/food/breakfast_120.png"
        }
      ],
      "filters": null
    },
    {
      "user": null,
      "partner": null,
      "locationGroup": null,
      "activationCode": null,
      "mid": null,
      "name": "Freddy's Frozen Custard & Steakburgers",
      "address": "2675 S Beulah Blvd",
      "city": "Flagstaff",
      "state": "AZ",
      "zipcode": "86001",
      "categories": [],
      "geo": [-111.66397309347056, 35.17510155236614],
      "status": 10,
      "branchLink": "",
      "utc": "-08:00",
      "place": "59fbc1acdf8da9ad57a5ed29",
      "paymentMethod": null,
      "shortDescription": null,
      "description": null,
      "trialExpirationWarning": false,
      "partner": false,
      "isPartnerSignup": false,
      "market": "5ba53a84f65a7d002da2098d",
      "secondaryMarket": null,
      "tertiaryMarket": null,
      "deleted": false,
      "_id": "59fbc1addf8da9ad57a5ee37",
      "__v": 0,
      "createdAt": "2020-04-28T21:26:44.361Z",
      "updatedAt": "2020-05-15T00:49:47.181Z",
      "phone": {
        "mobile": null,
        "work": "",
        "_id": "5ebde72bc6d18080ed050314"
      },
      "hours": [],
      "photos": [
        {
          "_id": "59fbc1ad5d92030001be682c",
          "isPrimary": true,
          "url": "https://ss3.4sqi.net/img/categories_v2/food/burger_120.png"
        }
      ],
      "filters": null
    },
    {
      "user": null,
      "partner": null,
      "locationGroup": null,
      "activationCode": null,
      "mid": null,
      "name": "The Great Gatsby 2017 NYE Ball",
      "address": "1212 3rd Street Promenade",
      "city": "Santa Monica",
      "state": "CA",
      "zipcode": "90401",
      "categories": [],
      "geo": [-118.49912, 34.0177973],
      "status": 10,
      "branchLink": "",
      "utc": "-08:00",
      "place": "598fae69710880a8e7088b90",
      "paymentMethod": null,
      "shortDescription": null,
      "description": null,
      "trialExpirationWarning": false,
      "partner": false,
      "isPartnerSignup": false,
      "market": "5ba53a84f65a7d002da2098c",
      "secondaryMarket": "5dae0d1b7d0fd2d31938c89a",
      "tertiaryMarket": null,
      "deleted": false,
      "_id": "5a3dde89df8da9ad577ac4b0",
      "__v": 0,
      "createdAt": "2020-04-28T21:26:44.391Z",
      "updatedAt": "2020-05-15T00:49:47.569Z",
      "phone": {
        "mobile": null,
        "work": "+13105769996",
        "_id": "5ebde72bc6d18080ed050553"
      },
      "hours": [],
      "photos": [
        {
          "_id": "59fb74978e75e40001c2b476",
          "isPrimary": true,
          "url": "https://s3.amazonaws.com/freebirdrides/branch/NYEball.jpg"
        }
      ],
      "filters": null
    },
    {
      "user": null,
      "partner": null,
      "locationGroup": null,
      "activationCode": null,
      "mid": null,
      "name": "Trader Joe's",
      "address": "7575 W Washington Ave",
      "city": "Las Vegas",
      "state": "NV",
      "zipcode": "89128",
      "categories": [],
      "geo": [-115.2578687, 36.1805903],
      "status": 10,
      "branchLink": "",
      "utc": "-08:00",
      "place": "5e7aa24190b83ad9cc69bd7e",
      "paymentMethod": null,
      "shortDescription": null,
      "description": "Grocery chain with a variety of signature items, plus produce, dairy & more (most sell wine & beer).",
      "trialExpirationWarning": false,
      "partner": false,
      "isPartnerSignup": false,
      "market": "5ba53a84f65a7d002da209c8",
      "secondaryMarket": null,
      "tertiaryMarket": null,
      "deleted": false,
      "_id": "5e7aa24190b83ad9cc69bd91",
      "__v": 0,
      "createdAt": "2020-04-28T21:26:44.394Z",
      "updatedAt": "2020-05-15T00:52:36.106Z",
      "phone": {
        "mobile": null,
        "work": "(702) 242-8240",
        "_id": "5ebde7d4c6d18080ed0b3b65"
      },
      "hours": [
        {
          "open": { "day": 0, "time": 900, "_id": "5ebde7d4c6d18080ed0b3b63" },
          "_id": "5e7aa241465276dd17c7a784",
          "close": { "day": 0, "time": 1900, "_id": "5ebde7d4c6d18080ed0b3b64" }
        },
        {
          "open": { "day": 1, "time": 900, "_id": "5ebde7d4c6d18080ed0b3b5f" },
          "_id": "5e7aa2414652767c88c7a783",
          "close": { "day": 1, "time": 1900, "_id": "5ebde7d4c6d18080ed0b3b60" }
        },
        {
          "open": { "day": 2, "time": 900, "_id": "5ebde7d4c6d18080ed0b3b5b" },
          "_id": "5e7aa2414652762914c7a782",
          "close": { "day": 2, "time": 1900, "_id": "5ebde7d4c6d18080ed0b3b5c" }
        },
        {
          "open": { "day": 3, "time": 900, "_id": "5ebde7d4c6d18080ed0b3b57" },
          "_id": "5e7aa241465276c049c7a781",
          "close": { "day": 3, "time": 1900, "_id": "5ebde7d4c6d18080ed0b3b58" }
        },
        {
          "open": { "day": 4, "time": 900, "_id": "5ebde7d4c6d18080ed0b3b53" },
          "_id": "5e7aa241465276f72ec7a780",
          "close": { "day": 4, "time": 1900, "_id": "5ebde7d4c6d18080ed0b3b54" }
        },
        {
          "open": { "day": 5, "time": 900, "_id": "5ebde7d4c6d18080ed0b3b4f" },
          "_id": "5e7aa2414652767a97c7a77f",
          "close": { "day": 5, "time": 1900, "_id": "5ebde7d4c6d18080ed0b3b50" }
        },
        {
          "open": { "day": 6, "time": 900, "_id": "5ebde7d4c6d18080ed0b3b4b" },
          "_id": "5e7aa241465276f120c7a77e",
          "close": { "day": 6, "time": 1900, "_id": "5ebde7d4c6d18080ed0b3b4c" }
        }
      ],
      "photos": [
        {
          "_id": "5e7aa241465276f72fc7a77d",
          "url": "https://fbird-images-prod.s3.us-west-2.amazonaws.com/user/5e5712fb0c9cb80008d880f4/location/photos/b8fafc60-55b2-4931-af49-b25d0ffbefb8.png",
          "isPrimary": true
        }
      ],
      "filters": []
    },
    {
      "user": null,
      "partner": null,
      "locationGroup": null,
      "activationCode": null,
      "mid": null,
      "name": "Fuku Burger",
      "address": "3429 S Jones Blvd",
      "city": "Las Vegas",
      "state": "NV",
      "zipcode": "89146",
      "categories": [],
      "geo": [-115.225252, 36.1266],
      "status": 10,
      "branchLink": "",
      "utc": "-08:00",
      "place": "5c36bda0c8f76684260bcfde",
      "paymentMethod": null,
      "shortDescription": null,
      "description": "Sleek counter-serve spot offering burgers with Japanese flavors in a colorful indoor-outdoor space.",
      "trialExpirationWarning": false,
      "partner": false,
      "isPartnerSignup": false,
      "market": "5ba53a84f65a7d002da209c8",
      "secondaryMarket": null,
      "tertiaryMarket": null,
      "deleted": false,
      "_id": "5c36bda0c8f76684260bcfeb",
      "__v": 0,
      "createdAt": "2020-04-28T21:26:44.394Z",
      "updatedAt": "2020-05-15T00:53:59.047Z",
      "phone": {
        "mobile": null,
        "work": "(702) 262-6995",
        "_id": "5ebde827c6d18080ed16ce02"
      },
      "hours": [
        {
          "open": { "day": 0, "time": 1130, "_id": "5ebde827c6d18080ed16ce00" },
          "_id": "5e4711eb8daf79b881ad67e2",
          "close": { "day": 1, "time": 100, "_id": "5ebde827c6d18080ed16ce01" }
        },
        {
          "open": { "day": 1, "time": 1130, "_id": "5ebde827c6d18080ed16cdfc" },
          "_id": "5e4711eb8daf79185bad67e1",
          "close": { "day": 2, "time": 100, "_id": "5ebde827c6d18080ed16cdfd" }
        },
        {
          "open": { "day": 2, "time": 1130, "_id": "5ebde827c6d18080ed16cdf8" },
          "_id": "5e4711eb8daf798138ad67e0",
          "close": { "day": 3, "time": 100, "_id": "5ebde827c6d18080ed16cdf9" }
        },
        {
          "open": { "day": 3, "time": 1130, "_id": "5ebde827c6d18080ed16cdf4" },
          "_id": "5e4711eb8daf795850ad67df",
          "close": { "day": 4, "time": 100, "_id": "5ebde827c6d18080ed16cdf5" }
        },
        {
          "open": { "day": 4, "time": 1130, "_id": "5ebde827c6d18080ed16cdf0" },
          "_id": "5e4711eb8daf792611ad67de",
          "close": { "day": 5, "time": 100, "_id": "5ebde827c6d18080ed16cdf1" }
        },
        {
          "open": { "day": 5, "time": 1130, "_id": "5ebde827c6d18080ed16cdec" },
          "_id": "5e4711eb8daf796770ad67dd",
          "close": { "day": 6, "time": 300, "_id": "5ebde827c6d18080ed16cded" }
        },
        {
          "open": { "day": 6, "time": 1130, "_id": "5ebde827c6d18080ed16cde8" },
          "_id": "5e4711eb8daf792d64ad67dc",
          "close": { "day": 0, "time": 300, "_id": "5ebde827c6d18080ed16cde9" }
        }
      ],
      "photos": [
        {
          "_id": "5e4711eb8daf79b4f6ad67db",
          "url": "https://lh3.ggpht.com/p/AF1QipPl8_EjbaYnf_OGRcMjprAmw1L5mDXQV_9WxIED=s1024",
          "isPrimary": true
        }
      ],
      "filters": []
    },
    {
      "user": null,
      "partner": null,
      "locationGroup": null,
      "activationCode": null,
      "mid": null,
      "name": "CVS Pharmacy",
      "address": "520 Penn Ave",
      "city": "Wilkinsburg",
      "state": "PA",
      "zipcode": "15221",
      "categories": [],
      "geo": [-79.886283, 40.443852],
      "status": 10,
      "branchLink": "",
      "utc": "-08:00",
      "place": "5e7d61a990b83ad9cc8bafa4",
      "paymentMethod": null,
      "shortDescription": null,
      "description": "",
      "trialExpirationWarning": false,
      "partner": false,
      "isPartnerSignup": false,
      "market": "5ba53a84f65a7d002da2099f",
      "secondaryMarket": null,
      "tertiaryMarket": null,
      "deleted": false,
      "_id": "5e7d61a990b83ad9cc8bafb2",
      "__v": 0,
      "createdAt": "2020-04-28T21:26:44.395Z",
      "updatedAt": "2020-05-15T00:49:47.999Z",
      "phone": {
        "mobile": null,
        "work": "(412) 243-6048",
        "_id": "5ebde72cc6d18080ed050c12"
      },
      "hours": [
        {
          "open": { "day": 5, "time": 0, "_id": "5ebde72cc6d18080ed050c10" },
          "_id": "5e7d61a9eac7cf2c87e22617",
          "close": { "day": 5, "time": 2359, "_id": "5ebde72cc6d18080ed050c11" }
        },
        {
          "open": { "day": 1, "time": 0, "_id": "5ebde72cc6d18080ed050c0c" },
          "_id": "5e7d61a9eac7cf5dc7e22616",
          "close": { "day": 1, "time": 2359, "_id": "5ebde72cc6d18080ed050c0d" }
        },
        {
          "open": { "day": 6, "time": 0, "_id": "5ebde72bc6d18080ed050c08" },
          "_id": "5e7d61a9eac7cf20c7e22615",
          "close": { "day": 6, "time": 2359, "_id": "5ebde72cc6d18080ed050c09" }
        },
        {
          "open": { "day": 0, "time": 0, "_id": "5ebde72bc6d18080ed050c04" },
          "_id": "5e7d61a9eac7cf1032e22614",
          "close": { "day": 0, "time": 2359, "_id": "5ebde72bc6d18080ed050c05" }
        },
        {
          "open": { "day": 4, "time": 0, "_id": "5ebde72bc6d18080ed050c00" },
          "_id": "5e7d61a9eac7cf1c66e22613",
          "close": { "day": 4, "time": 2359, "_id": "5ebde72bc6d18080ed050c01" }
        },
        {
          "open": { "day": 2, "time": 0, "_id": "5ebde72bc6d18080ed050bfc" },
          "_id": "5e7d61a9eac7cfcfaae22612",
          "close": { "day": 2, "time": 2359, "_id": "5ebde72bc6d18080ed050bfd" }
        },
        {
          "open": { "day": 3, "time": 0, "_id": "5ebde72bc6d18080ed050bf8" },
          "_id": "5e7d61a9eac7cf313fe22611",
          "close": { "day": 3, "time": 2359, "_id": "5ebde72bc6d18080ed050bf9" }
        }
      ],
      "photos": [],
      "filters": []
    },
    {
      "user": null,
      "partner": null,
      "locationGroup": null,
      "activationCode": null,
      "mid": null,
      "name": "Lumberyard Brewing Co.",
      "address": "5 S San Francisco St",
      "city": "Flagstaff",
      "state": "AZ",
      "zipcode": "86001",
      "categories": [],
      "geo": [-111.64875268936157, 35.19651902997052],
      "status": 10,
      "branchLink": "",
      "utc": "-08:00",
      "place": "59fbc1addf8da9ad57a5ed8c",
      "paymentMethod": null,
      "shortDescription": null,
      "description": null,
      "trialExpirationWarning": false,
      "partner": false,
      "isPartnerSignup": false,
      "market": "5ba53a84f65a7d002da2098d",
      "secondaryMarket": null,
      "tertiaryMarket": null,
      "deleted": false,
      "_id": "59fbc1aedf8da9ad57a5eeb0",
      "__v": 0,
      "createdAt": "2020-04-28T21:26:44.396Z",
      "updatedAt": "2020-05-15T00:49:46.866Z",
      "phone": {
        "mobile": null,
        "work": "9287792739",
        "_id": "5ebde72ac6d18080ed0502d5"
      },
      "hours": [],
      "photos": [
        {
          "_id": "59fbc1ad5d92030001be6834",
          "isPrimary": true,
          "url": "https://ss3.4sqi.net/img/categories_v2/food/brewery_120.png"
        }
      ],
      "filters": null
    },
    {
      "user": null,
      "partner": null,
      "locationGroup": null,
      "activationCode": null,
      "mid": null,
      "name": "Tacos Los Altos",
      "address": "3650 E Route 66",
      "city": "Flagstaff",
      "state": "AZ",
      "zipcode": "86004",
      "categories": [],
      "geo": [-111.5950884441011, 35.21641622729617],
      "status": 10,
      "branchLink": "",
      "utc": "-08:00",
      "place": "59fbc1acdf8da9ad57a5ed2d",
      "paymentMethod": null,
      "shortDescription": null,
      "description": null,
      "trialExpirationWarning": false,
      "partner": false,
      "isPartnerSignup": false,
      "market": "5ba53a84f65a7d002da2098d",
      "secondaryMarket": null,
      "tertiaryMarket": null,
      "deleted": false,
      "_id": "59fbc1addf8da9ad57a5ee1f",
      "__v": 0,
      "createdAt": "2020-04-28T21:26:44.396Z",
      "updatedAt": "2020-05-15T00:49:47.197Z",
      "phone": {
        "mobile": null,
        "work": "9287141012",
        "_id": "5ebde72bc6d18080ed05034f"
      },
      "hours": [],
      "photos": [
        {
          "_id": "59fbc1ad5d92030001be682a",
          "isPrimary": true,
          "url": "https://ss3.4sqi.net/img/categories_v2/food/mexican_120.png"
        }
      ],
      "filters": null
    },
    {
      "user": null,
      "partner": null,
      "locationGroup": null,
      "activationCode": null,
      "mid": null,
      "name": "Scorpion Bar",
      "address": "253 Patriot Pl",
      "city": "Foxborough",
      "state": "MA",
      "zipcode": "02035",
      "categories": [],
      "geo": [-71.26755106658719, 42.092306048176724],
      "status": 10,
      "branchLink": "",
      "utc": "-08:00",
      "place": "5a518a7cdf8da9ad57ff757d",
      "paymentMethod": null,
      "shortDescription": null,
      "description": "Clever Mexican fare, cocktails & scorpion bowls served in a large space with dramatic, modern decor.",
      "trialExpirationWarning": false,
      "partner": false,
      "isPartnerSignup": false,
      "market": "5ba53a84f65a7d002da2098b",
      "secondaryMarket": null,
      "tertiaryMarket": null,
      "deleted": false,
      "_id": "5a518a7cdf8da9ad57ff75b1",
      "__v": 0,
      "createdAt": "2020-04-28T21:26:44.397Z",
      "updatedAt": "2020-05-15T00:49:47.606Z",
      "phone": {
        "mobile": null,
        "work": "(617) 274-1742",
        "_id": "5ebde72bc6d18080ed05063a"
      },
      "hours": [
        {
          "open": { "day": 0, "time": 1200, "_id": "5ebde72bc6d18080ed050638" },
          "_id": "5a96f06a6a23a900019927dd",
          "close": { "day": 0, "time": 2200, "_id": "5ebde72bc6d18080ed050639" }
        },
        {
          "open": { "day": 1, "time": 1600, "_id": "5ebde72bc6d18080ed050634" },
          "_id": "5a96f06a6a23a900019927dc",
          "close": { "day": 1, "time": 2200, "_id": "5ebde72bc6d18080ed050635" }
        },
        {
          "open": { "day": 2, "time": 1600, "_id": "5ebde72bc6d18080ed050630" },
          "_id": "5a96f06a6a23a900019927db",
          "close": { "day": 2, "time": 2200, "_id": "5ebde72bc6d18080ed050631" }
        },
        {
          "open": { "day": 3, "time": 1600, "_id": "5ebde72bc6d18080ed05062c" },
          "_id": "5a96f06a6a23a900019927da",
          "close": { "day": 3, "time": 2200, "_id": "5ebde72bc6d18080ed05062d" }
        },
        {
          "open": { "day": 4, "time": 1600, "_id": "5ebde72bc6d18080ed050628" },
          "_id": "5a96f06a6a23a900019927d9",
          "close": { "day": 4, "time": 2300, "_id": "5ebde72bc6d18080ed050629" }
        },
        {
          "open": { "day": 5, "time": 1200, "_id": "5ebde72bc6d18080ed050624" },
          "_id": "5a96f06a6a23a900019927d8",
          "close": { "day": 6, "time": 100, "_id": "5ebde72bc6d18080ed050625" }
        },
        {
          "open": { "day": 6, "time": 1200, "_id": "5ebde72bc6d18080ed050620" },
          "_id": "5a96f06a6a23a900019927d7",
          "close": { "day": 0, "time": 100, "_id": "5ebde72bc6d18080ed050621" }
        }
      ],
      "photos": [
        {
          "_id": "5a7ca38f880bc30001e2b051",
          "isPrimary": true,
          "url": "https://maps.googleapis.com/maps/api/place/photo?maxwidth=600&photoreference=CmRaAAAAhzQUf8s8XPwBux9ftIr5cqFby06lB2TxXmI1_NHIGTELoc4molPvIt5FtjCt0kMybYuY6PrEf03jiXq6-BEGRbARIeHfi3pkTZ4kj5ZxkrQr39IfdlpRGD4DAqL3UOkAEhAlhHr-Iq0Nx0x7H_4DtPOAGhSxDWM86keIoPLZXvs9LWMpVG-HQA&key=AIzaSyBGXLWa3UWgo_tO2clykKvdEtWDcF1oLWI"
        },
        {
          "_id": "5a7ca38f880bc30001e2b050",
          "isPrimary": false,
          "url": "https://maps.googleapis.com/maps/api/place/photo?maxwidth=600&photoreference=CmRaAAAABK7CLSrTKZKfUyGsdm0l3PWkrAxpJKuaP3EWYGzxmRMlso_C-OGBJGvWjBC_96gA7HHRS72mBSsSQmWsaryWiMhuEkbBwW8kUw9i8VzyfD_N7RBgunJzwZldGXhKWW74EhDMCrrhiuaFmS0mWiqkqBdPGhSb3DFGRnbF_W-dd9d-qSQj4J4zQg&key=AIzaSyBGXLWa3UWgo_tO2clykKvdEtWDcF1oLWI"
        },
        {
          "_id": "5a7ca38f880bc30001e2b04f",
          "isPrimary": false,
          "url": "https://maps.googleapis.com/maps/api/place/photo?maxwidth=600&photoreference=CmRaAAAAEe2r4kZF5epBsa5HDhQQkbszzswuLdJ8nLatuO8D1LF7Lxs24ovQsmhPkSCA6Lr0lkCHlESjSEiarAYseOIU1nDNMzTwC4rOtKH8yk4NkS8G12EAGkXNEH2Pi5qWstGLEhB6XEEGRf__OfDTPsBjXSZWGhREKmdmW85dacPj-AvfbecpOaDIYg&key=AIzaSyBGXLWa3UWgo_tO2clykKvdEtWDcF1oLWI"
        },
        {
          "_id": "5a7ca38f880bc30001e2b04e",
          "isPrimary": false,
          "url": "https://maps.googleapis.com/maps/api/place/photo?maxwidth=600&photoreference=CmRaAAAAjd-cHVf1PvGm8Y3wJAeg-JknOPcE-siOnLRaH32DDwBJ5hwNvxoc6p3qdHqKCJkZom5yKs-NIp4hHcgB1Yex6TMVNehKZU3S5qDpECucfvTHrCblLOmiq9pD-Zwf0SQXEhCC3nBrQCQT6or8Fh9zIBMcGhQOdDZpDUDsVZNNM9XkEwG_D3MDYA&key=AIzaSyBGXLWa3UWgo_tO2clykKvdEtWDcF1oLWI"
        },
        {
          "_id": "5a7ca38f880bc30001e2b04d",
          "isPrimary": false,
          "url": "https://maps.googleapis.com/maps/api/place/photo?maxwidth=600&photoreference=CmRaAAAABqRh5Rvgg_tC8MHS-XFG2kB_jAOa2S3G_G4_caTTLKJc0nLWPLpb-KK5TqlRrcIo616QkLOvV9gKEYQXBAve027d-3uPAQLDGhPUrUG9YiDMDsSqDZVjIJZ1a1PvW3rcEhBza1-6wsPci5HZwmvXJ_KHGhQMHDo6paIn7qvxzy7GA4U4tc5cRA&key=AIzaSyBGXLWa3UWgo_tO2clykKvdEtWDcF1oLWI"
        },
        {
          "_id": "5a7ca38f880bc30001e2b04c",
          "isPrimary": false,
          "url": "https://maps.googleapis.com/maps/api/place/photo?maxwidth=600&photoreference=CmRaAAAAUgZDrTiSfrtSG1RIOpsDZMJe5TF9wqHwoU2eiEWgXwNlQNu5sO3JYAJJLcQZIdvhIjaLs0zHZPjsnDQRIYx21lndO8pumNg3-h-kKEf_2-PwvM8xrRrXymQFv-XuWtVmEhBCG1GuwZSJyxiM7iGmpWH2GhTMPjo6wfpCWfILCOJ4-XpjoLcICw&key=AIzaSyBGXLWa3UWgo_tO2clykKvdEtWDcF1oLWI"
        },
        {
          "_id": "5a7ca38f880bc30001e2b04b",
          "isPrimary": false,
          "url": "https://maps.googleapis.com/maps/api/place/photo?maxwidth=600&photoreference=CmRaAAAABcFvQkP6PN2a_jRD5c22JHbE6CrKfy7xR-4dbaRTPgiid7yf7_Y3d05zd3HKEN0tChCN25cnU2WUYFWf544-I6cEkWATavKVE7ksqMi6DiuMeV_kuDNV2ojBtTUBBiEFEhDiziS6vEeO8SO9fxS-UuytGhQETOrxYlWEuoxQWhUZjVFpFfFxug&key=AIzaSyBGXLWa3UWgo_tO2clykKvdEtWDcF1oLWI"
        },
        {
          "_id": "5a7ca38f880bc30001e2b04a",
          "isPrimary": false,
          "url": "https://maps.googleapis.com/maps/api/place/photo?maxwidth=600&photoreference=CmRaAAAAD8WA97osTQpH0fnVMFkM6xDTAyycZLdd9CmZc01GpxGxxP35C2APVG5xGj0xfedU5z_KK2fNWb1xBjnBW6-XPMW6nuRgJTb84l0SqdaOZcpIiwBJDWL7DneHgd9sXCfxEhDzaiArdDNiLqC2opZ36irIGhSEcrR0EriCRfQMHASh5QsP1xTQ1A&key=AIzaSyBGXLWa3UWgo_tO2clykKvdEtWDcF1oLWI"
        },
        {
          "_id": "5a7ca38f880bc30001e2b049",
          "isPrimary": false,
          "url": "https://maps.googleapis.com/maps/api/place/photo?maxwidth=600&photoreference=CmRaAAAAClJ9LVvH6n4jtjFdQdsjh6fF6EkYwcGs3Xi5zPpYz6lf9dokUSgG-qNJcRbZUqbXVKcR48QRQ1tgGqKbbsSaFXcdV38r9owjIIU2z_cdR83cRI2FiR699H1cxXyuQCKuEhA-pAD1EYkSwR9HJ-iX7o0fGhTH22ENUbGAqOkfq0aiTjPcPusdvw&key=AIzaSyBGXLWa3UWgo_tO2clykKvdEtWDcF1oLWI"
        },
        {
          "_id": "5a7ca38f880bc30001e2b048",
          "isPrimary": false,
          "url": "https://maps.googleapis.com/maps/api/place/photo?maxwidth=600&photoreference=CmRaAAAAYA96CRauSXC57n6erpfoVt5OW5lrlpj0rRTvqsaM48S8Hxl0DrDJO558D3KwM8hg4R1yu-EBCQjvyqoxUc6CTPiP_keHEvEvgBbcnMGKAF8rFXzHxfI-uP5Kuy_O_PfOEhCpsrpnjdxxXZ4xVWCx7N8eGhQfBLyJkwcgSma5cFn4COe1v1pUDg&key=AIzaSyBGXLWa3UWgo_tO2clykKvdEtWDcF1oLWI"
        }
      ],
      "filters": null
    },
    {
      "user": null,
      "partner": "5e322bbadf212a365a8aa61a",
      "locationGroup": "5e322bbe74a4a70007af42e6",
      "activationCode": null,
      "mid": null,
      "name": "Spearmint Rhino Gentleman's Club",
      "address": "630 Maulhardt Ave",
      "city": "Oxnard",
      "state": "CA",
      "zipcode": "93030",
      "categories": [],
      "geo": [-119.14430856794901, 34.20776142469124],
      "status": 10,
      "branchLink": "",
      "utc": "-08:00",
      "place": "59d45e5807ebd4f97b1ae5f9",
      "paymentMethod": null,
      "shortDescription": null,
      "description": "",
      "trialExpirationWarning": false,
      "partner": false,
      "isPartnerSignup": false,
      "market": "5ba53a84f65a7d002da2098c",
      "secondaryMarket": "5dae0d1c7d0fd2d31938c89e",
      "tertiaryMarket": null,
      "deleted": false,
      "_id": "59d45e5a07ebd4f97b1ae6dd",
      "__v": 0,
      "createdAt": "2020-04-28T21:26:44.397Z",
      "updatedAt": "2020-05-15T00:49:47.571Z",
      "phone": {
        "mobile": null,
        "work": "8059886518",
        "_id": "5ebde72bc6d18080ed050555"
      },
      "hours": [],
      "photos": [
        {
          "_id": "59d45e998d00fd00013fdd39",
          "isPrimary": true,
          "url": "https://ss3.4sqi.net/img/categories_v2/nightlife/stripclub_120.png"
        }
      ],
      "filters": []
    }
  ]
}
