{
  "page": 1,
  "pageSize": 10,
  "totalItems": 176528,
  "totalPages": 17653,
  "skipped": 0,
  "sort": {},
  "results": [
    {
      "code": null,
      "user": "5903822e3e0d4e0047985511",
      "title": "Mike & Ronda’s The Place",
      "description": "",
      "status": "notify",
      "enabled": null,
      "type": "linked",
      "offerIsFreeTrial": true,
      "controlState": null,
      "rideContribution": 2,
      "serviceFee": 2,
      "chargeType": null,
      "budget": 0,
      "private": false,
      "branchLink": "https://my.fbird.co/ZxxU/7hH1GSS9KH",
      "upTo": true,
      "dailyLimit": 0,
      "weeklyLimit": 0,
      "points": 0,
      "adminDisabled": null,
      "market": null,
      "secondaryMarket": null,
      "tertiaryMarket": null,
      "deleted": false,
      "_id": "59fbc1afdf8da9ad57a5efc4",
      "__v": 0,
      "createdAt": "2020-04-28T21:26:44.276Z",
      "location": "59fbc1aedf8da9ad57a5ee6e",
      "updatedAt": "2020-05-27T02:09:13.875Z",
      "googlePlace": null,
      "photos": [
        {
          "_id": "59fbc1ad5d92030001be6830",
          "isPrimary": true,
          "url": "https://ss3.4sqi.net/img/categories_v2/food/breakfast_120.png"
        }
      ],
      "hours": [],
      "privateOfferPhoto": []
    },
    {
      "code": null,
      "user": "5903822e3e0d4e0047985511",
      "title": "Freddy's Frozen Custard & Steakburgers",
      "description": "",
      "status": "notify",
      "enabled": null,
      "type": "linked",
      "offerIsFreeTrial": true,
      "controlState": null,
      "rideContribution": 2,
      "serviceFee": 2,
      "chargeType": null,
      "budget": 0,
      "private": false,
      "branchLink": "https://my.fbird.co/ZxxU/WKY8gQS9KH",
      "upTo": true,
      "dailyLimit": 0,
      "weeklyLimit": 0,
      "points": 0,
      "adminDisabled": null,
      "market": null,
      "secondaryMarket": null,
      "tertiaryMarket": null,
      "deleted": false,
      "_id": "59fbc1afdf8da9ad57a5ef9e",
      "__v": 0,
      "createdAt": "2020-04-28T21:26:44.286Z",
      "location": "59fbc1addf8da9ad57a5ee37",
      "updatedAt": "2020-05-27T02:09:13.859Z",
      "googlePlace": null,
      "photos": [
        {
          "_id": "59fbc1ad5d92030001be682c",
          "isPrimary": true,
          "url": "https://ss3.4sqi.net/img/categories_v2/food/burger_120.png"
        }
      ],
      "hours": [],
      "privateOfferPhoto": []
    },
    {
      "code": null,
      "user": "5903822e3e0d4e0047985511",
      "title": "The Great Gatsby 2017 NYE Ball",
      "description": "This offer will be activated on Dec 31, 2017.\n\nTickets must be purchased separately at the door or online: https://www.eventbrite.com/e/gatsby-nye-ball-2018-tickets-41036118134",
      "status": "notify",
      "enabled": null,
      "type": "linked",
      "offerIsFreeTrial": true,
      "controlState": "managed",
      "rideContribution": 3,
      "serviceFee": 2,
      "chargeType": null,
      "budget": 0,
      "private": false,
      "branchLink": "https://my.fbird.co/NYE2017",
      "upTo": true,
      "dailyLimit": 0,
      "weeklyLimit": 0,
      "points": 0,
      "adminDisabled": null,
      "market": "5ba53a84f65a7d002da2098c",
      "secondaryMarket": "5dae0d1b7d0fd2d31938c89a",
      "tertiaryMarket": null,
      "deleted": false,
      "_id": "5a3dde55df8da9ad577abf39",
      "__v": 0,
      "createdAt": "2020-04-28T21:26:44.288Z",
      "location": "5a3dde89df8da9ad577ac4b0",
      "updatedAt": "2020-05-27T02:09:14.423Z",
      "googlePlace": null,
      "photos": [
        {
          "_id": "59fb74978e75e40001c2b476",
          "isPrimary": true,
          "url": "https://s3.amazonaws.com/freebirdrides/branch/NYEball.jpg"
        }
      ],
      "hours": [
        {
          "open": {
            "day": 0,
            "time": 2000,
            "_id": "5ecdcbca3df92522beb1a5ea"
          },
          "_id": "59e260315853f30001530944",
          "close": {
            "day": 1,
            "time": 200,
            "_id": "5ecdcbca3df92522beb1a5e9"
          }
        },
        {
          "open": {
            "day": 1,
            "time": 2000,
            "_id": "5ecdcbca3df92522beb1a5e6"
          },
          "_id": "59e260315853f30001530943",
          "close": {
            "day": 2,
            "time": 200,
            "_id": "5ecdcbca3df92522beb1a5e5"
          }
        },
        {
          "open": {
            "day": 2,
            "time": 2000,
            "_id": "5ecdcbca3df92522beb1a5e2"
          },
          "_id": "59e260315853f30001530942",
          "close": {
            "day": 3,
            "time": 200,
            "_id": "5ecdcbca3df92522beb1a5e1"
          }
        },
        {
          "open": {
            "day": 3,
            "time": 2000,
            "_id": "5ecdcbca3df92522beb1a5de"
          },
          "_id": "59e260315853f30001530941",
          "close": {
            "day": 4,
            "time": 200,
            "_id": "5ecdcbca3df92522beb1a5dd"
          }
        },
        {
          "open": {
            "day": 4,
            "time": 2000,
            "_id": "5ecdcbca3df92522beb1a5da"
          },
          "_id": "59e260315853f30001530940",
          "close": {
            "day": 5,
            "time": 200,
            "_id": "5ecdcbca3df92522beb1a5d9"
          }
        },
        {
          "open": {
            "day": 5,
            "time": 2000,
            "_id": "5ecdcbca3df92522beb1a5d6"
          },
          "_id": "59e260315853f3000153093f",
          "close": {
            "day": 6,
            "time": 200,
            "_id": "5ecdcbca3df92522beb1a5d5"
          }
        },
        {
          "open": {
            "day": 6,
            "time": 2000,
            "_id": "5ecdcbca3df92522beb1a5d2"
          },
          "_id": "59e260315853f3000153093e",
          "close": {
            "day": 0,
            "time": 200,
            "_id": "5ecdcbca3df92522beb1a5d1"
          }
        }
      ],
      "privateOfferPhoto": []
    },
    {
      "code": null,
      "user": "5903822e3e0d4e0047985511",
      "title": "Trader Joe's",
      "description": "Grocery chain with a variety of signature items, plus produce, dairy & more (most sell wine & beer).",
      "status": "active",
      "enabled": false,
      "type": "linked",
      "offerIsFreeTrial": false,
      "controlState": "managed",
      "rideContribution": 0,
      "serviceFee": 2,
      "chargeType": "automatic",
      "budget": 0,
      "private": false,
      "branchLink": "https://my.fbird.co/NBVYuM2274",
      "upTo": true,
      "dailyLimit": 0,
      "weeklyLimit": 0,
      "points": 250,
      "adminDisabled": true,
      "market": "5ba53a84f65a7d002da209c8",
      "secondaryMarket": null,
      "tertiaryMarket": null,
      "deleted": false,
      "_id": "5e7aa24190b83ad9cc69bdad",
      "__v": 0,
      "createdAt": "2020-04-28T21:26:44.289Z",
      "location": "5e7aa24190b83ad9cc69bd91",
      "updatedAt": "2020-05-27T02:09:14.405Z",
      "googlePlace": null,
      "photos": [
        {
          "_id": "5e7aa241465276f72fc7a77d",
          "url": "https://fbird-images-prod.s3.us-west-2.amazonaws.com/user/5e5712fb0c9cb80008d880f4/location/photos/b8fafc60-55b2-4931-af49-b25d0ffbefb8.png",
          "isPrimary": true
        }
      ],
      "hours": [
        {
          "open": {
            "day": 0,
            "time": 900,
            "_id": "5ecdcbca3df92522beb1a5ab"
          },
          "_id": "5e7aa241465276dd17c7a784",
          "close": {
            "day": 0,
            "time": 1900,
            "_id": "5ecdcbca3df92522beb1a5ac"
          }
        },
        {
          "open": {
            "day": 1,
            "time": 900,
            "_id": "5ecdcbca3df92522beb1a5a7"
          },
          "_id": "5e7aa2414652767c88c7a783",
          "close": {
            "day": 1,
            "time": 1900,
            "_id": "5ecdcbca3df92522beb1a5a8"
          }
        },
        {
          "open": {
            "day": 2,
            "time": 900,
            "_id": "5ecdcbca3df92522beb1a5a3"
          },
          "_id": "5e7aa2414652762914c7a782",
          "close": {
            "day": 2,
            "time": 1900,
            "_id": "5ecdcbca3df92522beb1a5a4"
          }
        },
        {
          "open": {
            "day": 3,
            "time": 900,
            "_id": "5ecdcbca3df92522beb1a59f"
          },
          "_id": "5e7aa241465276c049c7a781",
          "close": {
            "day": 3,
            "time": 1900,
            "_id": "5ecdcbca3df92522beb1a5a0"
          }
        },
        {
          "open": {
            "day": 4,
            "time": 900,
            "_id": "5ecdcbca3df92522beb1a59b"
          },
          "_id": "5e7aa241465276f72ec7a780",
          "close": {
            "day": 4,
            "time": 1900,
            "_id": "5ecdcbca3df92522beb1a59c"
          }
        },
        {
          "open": {
            "day": 5,
            "time": 900,
            "_id": "5ecdcbca3df92522beb1a597"
          },
          "_id": "5e7aa2414652767a97c7a77f",
          "close": {
            "day": 5,
            "time": 1900,
            "_id": "5ecdcbca3df92522beb1a598"
          }
        },
        {
          "open": {
            "day": 6,
            "time": 900,
            "_id": "5ecdcbca3df92522beb1a593"
          },
          "_id": "5e7aa241465276f120c7a77e",
          "close": {
            "day": 6,
            "time": 1900,
            "_id": "5ecdcbca3df92522beb1a594"
          }
        }
      ],
      "privateOfferPhoto": []
    },
    {
      "code": null,
      "user": "5903822e3e0d4e0047985511",
      "title": "Fuku Burger",
      "description": "Sleek counter-serve spot offering burgers with Japanese flavors in a colorful indoor-outdoor space.",
      "status": "active",
      "enabled": false,
      "type": "linked",
      "offerIsFreeTrial": false,
      "controlState": "managed",
      "rideContribution": 3,
      "serviceFee": 2,
      "chargeType": "automatic",
      "budget": 0,
      "private": false,
      "branchLink": "https://my.fbird.co/hAKAXjh843",
      "upTo": true,
      "dailyLimit": 0,
      "weeklyLimit": 0,
      "points": 0,
      "adminDisabled": true,
      "market": "5ba53a84f65a7d002da209c8",
      "secondaryMarket": null,
      "tertiaryMarket": null,
      "deleted": false,
      "_id": "5e4711ff73e2c388e456e953",
      "__v": 0,
      "createdAt": "2020-04-28T21:26:44.290Z",
      "location": "5c36bda0c8f76684260bcfeb",
      "updatedAt": "2020-05-27T02:09:14.955Z",
      "googlePlace": null,
      "photos": [
        {
          "_id": "5e4711eb8daf79b4f6ad67db",
          "url": "https://lh3.ggpht.com/p/AF1QipPl8_EjbaYnf_OGRcMjprAmw1L5mDXQV_9WxIED=s1024",
          "isPrimary": true
        }
      ],
      "hours": [
        {
          "open": {
            "day": 0,
            "time": 1130,
            "_id": "5ecdcbca3df92522beb1aeeb"
          },
          "_id": "5e47121d8012b770fc89927e",
          "close": {
            "day": 1,
            "time": 100,
            "_id": "5ecdcbca3df92522beb1aeec"
          }
        },
        {
          "open": {
            "day": 1,
            "time": 1130,
            "_id": "5ecdcbca3df92522beb1aee7"
          },
          "_id": "5e47121d8012b72a0c89927d",
          "close": {
            "day": 2,
            "time": 100,
            "_id": "5ecdcbca3df92522beb1aee8"
          }
        },
        {
          "open": {
            "day": 2,
            "time": 1130,
            "_id": "5ecdcbca3df92522beb1aee3"
          },
          "_id": "5e47121d8012b72fe689927c",
          "close": {
            "day": 3,
            "time": 100,
            "_id": "5ecdcbca3df92522beb1aee4"
          }
        },
        {
          "open": {
            "day": 3,
            "time": 1130,
            "_id": "5ecdcbca3df92522beb1aedf"
          },
          "_id": "5e47121d8012b74fcd89927b",
          "close": {
            "day": 4,
            "time": 100,
            "_id": "5ecdcbca3df92522beb1aee0"
          }
        },
        {
          "open": {
            "day": 4,
            "time": 1130,
            "_id": "5ecdcbca3df92522beb1aedb"
          },
          "_id": "5e47121d8012b716d489927a",
          "close": {
            "day": 5,
            "time": 100,
            "_id": "5ecdcbca3df92522beb1aedc"
          }
        },
        {
          "open": {
            "day": 5,
            "time": 1130,
            "_id": "5ecdcbca3df92522beb1aed7"
          },
          "_id": "5e47121d8012b764da899279",
          "close": {
            "day": 6,
            "time": 300,
            "_id": "5ecdcbca3df92522beb1aed8"
          }
        },
        {
          "open": {
            "day": 6,
            "time": 1130,
            "_id": "5ecdcbca3df92522beb1aed3"
          },
          "_id": "5e47121d8012b7416b899278",
          "close": {
            "day": 0,
            "time": 300,
            "_id": "5ecdcbca3df92522beb1aed4"
          }
        }
      ],
      "privateOfferPhoto": []
    },
    {
      "code": null,
      "user": "5903822e3e0d4e0047985511",
      "title": "CVS Pharmacy",
      "description": "",
      "status": "active",
      "enabled": false,
      "type": "linked",
      "offerIsFreeTrial": false,
      "controlState": "managed",
      "rideContribution": 2,
      "serviceFee": 2,
      "chargeType": "automatic",
      "budget": 0,
      "private": false,
      "branchLink": "https://my.fbird.co/EyIKARvvb5",
      "upTo": true,
      "dailyLimit": 0,
      "weeklyLimit": 0,
      "points": 0,
      "adminDisabled": true,
      "market": "5ba53a84f65a7d002da2099f",
      "secondaryMarket": null,
      "tertiaryMarket": null,
      "deleted": false,
      "_id": "5e7d61aa90b83ad9cc8bb00f",
      "__v": 0,
      "createdAt": "2020-04-28T21:26:44.290Z",
      "location": "5e7d61a990b83ad9cc8bafb2",
      "updatedAt": "2020-05-27T02:09:14.410Z",
      "googlePlace": null,
      "photos": [],
      "hours": [
        {
          "open": {
            "day": 5,
            "time": 0,
            "_id": "5ecdcbca3df92522beb1a5c7"
          },
          "_id": "5e7d61a9eac7cf2c87e22617",
          "close": {
            "day": 5,
            "time": 2359,
            "_id": "5ecdcbca3df92522beb1a5c8"
          }
        },
        {
          "open": {
            "day": 1,
            "time": 0,
            "_id": "5ecdcbca3df92522beb1a5c3"
          },
          "_id": "5e7d61a9eac7cf5dc7e22616",
          "close": {
            "day": 1,
            "time": 2359,
            "_id": "5ecdcbca3df92522beb1a5c4"
          }
        },
        {
          "open": {
            "day": 6,
            "time": 0,
            "_id": "5ecdcbca3df92522beb1a5bf"
          },
          "_id": "5e7d61a9eac7cf20c7e22615",
          "close": {
            "day": 6,
            "time": 2359,
            "_id": "5ecdcbca3df92522beb1a5c0"
          }
        },
        {
          "open": {
            "day": 0,
            "time": 0,
            "_id": "5ecdcbca3df92522beb1a5bb"
          },
          "_id": "5e7d61a9eac7cf1032e22614",
          "close": {
            "day": 0,
            "time": 2359,
            "_id": "5ecdcbca3df92522beb1a5bc"
          }
        },
        {
          "open": {
            "day": 4,
            "time": 0,
            "_id": "5ecdcbca3df92522beb1a5b7"
          },
          "_id": "5e7d61a9eac7cf1c66e22613",
          "close": {
            "day": 4,
            "time": 2359,
            "_id": "5ecdcbca3df92522beb1a5b8"
          }
        },
        {
          "open": {
            "day": 2,
            "time": 0,
            "_id": "5ecdcbca3df92522beb1a5b3"
          },
          "_id": "5e7d61a9eac7cfcfaae22612",
          "close": {
            "day": 2,
            "time": 2359,
            "_id": "5ecdcbca3df92522beb1a5b4"
          }
        },
        {
          "open": {
            "day": 3,
            "time": 0,
            "_id": "5ecdcbca3df92522beb1a5af"
          },
          "_id": "5e7d61a9eac7cf313fe22611",
          "close": {
            "day": 3,
            "time": 2359,
            "_id": "5ecdcbca3df92522beb1a5b0"
          }
        }
      ],
      "privateOfferPhoto": []
    },
    {
      "code": null,
      "user": "5903822e3e0d4e0047985511",
      "title": "Lumberyard Brewing Co.",
      "description": "",
      "status": "notify",
      "enabled": null,
      "type": "linked",
      "offerIsFreeTrial": true,
      "controlState": null,
      "rideContribution": 2,
      "serviceFee": 2,
      "chargeType": null,
      "budget": 0,
      "private": false,
      "branchLink": "https://my.fbird.co/ZxxU/fYO8DQS9KH",
      "upTo": true,
      "dailyLimit": 0,
      "weeklyLimit": 0,
      "points": 0,
      "adminDisabled": null,
      "market": null,
      "secondaryMarket": null,
      "tertiaryMarket": null,
      "deleted": false,
      "_id": "59fbc1afdf8da9ad57a5efdb",
      "__v": 0,
      "createdAt": "2020-04-28T21:26:44.296Z",
      "location": "59fbc1aedf8da9ad57a5eeb0",
      "updatedAt": "2020-05-27T02:09:13.553Z",
      "factualRestaurant": "5bd08795633fe532b6c2a8d5",
      "googlePlace": null,
      "photos": [
        {
          "_id": "59fbc1ad5d92030001be6834",
          "isPrimary": true,
          "url": "https://ss3.4sqi.net/img/categories_v2/food/brewery_120.png"
        }
      ],
      "hours": [],
      "privateOfferPhoto": []
    },
    {
      "code": null,
      "user": "5903822e3e0d4e0047985511",
      "title": "Tacos Los Altos",
      "description": "",
      "status": "notify",
      "enabled": null,
      "type": "linked",
      "offerIsFreeTrial": true,
      "controlState": null,
      "rideContribution": 2,
      "serviceFee": 2,
      "chargeType": null,
      "budget": 0,
      "private": false,
      "branchLink": "https://my.fbird.co/ZxxU/IIIdsQS9KH",
      "upTo": true,
      "dailyLimit": 0,
      "weeklyLimit": 0,
      "points": 0,
      "adminDisabled": null,
      "market": null,
      "secondaryMarket": null,
      "tertiaryMarket": null,
      "deleted": false,
      "_id": "59fbc1afdf8da9ad57a5efa2",
      "__v": 0,
      "createdAt": "2020-04-28T21:26:44.297Z",
      "location": "59fbc1addf8da9ad57a5ee1f",
      "updatedAt": "2020-05-27T02:09:13.857Z",
      "factualRestaurant": "5bd07528633fe532b6b9c53a",
      "googlePlace": null,
      "photos": [
        {
          "_id": "59fbc1ad5d92030001be682a",
          "isPrimary": true,
          "url": "https://ss3.4sqi.net/img/categories_v2/food/mexican_120.png"
        }
      ],
      "hours": [],
      "privateOfferPhoto": []
    },
    {
      "code": null,
      "user": "5903822e3e0d4e0047985511",
      "title": "Scorpion Bar",
      "description": "Clever Mexican fare, cocktails & scorpion bowls served in a large space with dramatic, modern decor.",
      "status": "notify",
      "enabled": null,
      "type": "linked",
      "offerIsFreeTrial": true,
      "controlState": "managed",
      "rideContribution": 2,
      "serviceFee": 2,
      "chargeType": "automatic",
      "budget": 0,
      "private": false,
      "branchLink": "https://my.fbird.co/ZxxU/Twwlb7J9uJ",
      "upTo": true,
      "dailyLimit": 0,
      "weeklyLimit": 0,
      "points": 0,
      "adminDisabled": null,
      "market": "5ba53a84f65a7d002da2098b",
      "secondaryMarket": null,
      "tertiaryMarket": null,
      "deleted": false,
      "_id": "5a518a7ddf8da9ad57ff7764",
      "__v": 0,
      "createdAt": "2020-04-28T21:26:44.298Z",
      "location": "5a518a7cdf8da9ad57ff75b1",
      "updatedAt": "2020-05-27T02:09:14.475Z",
      "googlePlace": null,
      "photos": [
        {
          "_id": "5a7ca38f880bc30001e2b051",
          "isPrimary": true,
          "url": "https://maps.googleapis.com/maps/api/place/photo?maxwidth=600&photoreference=CmRaAAAAhzQUf8s8XPwBux9ftIr5cqFby06lB2TxXmI1_NHIGTELoc4molPvIt5FtjCt0kMybYuY6PrEf03jiXq6-BEGRbARIeHfi3pkTZ4kj5ZxkrQr39IfdlpRGD4DAqL3UOkAEhAlhHr-Iq0Nx0x7H_4DtPOAGhSxDWM86keIoPLZXvs9LWMpVG-HQA&key=AIzaSyBGXLWa3UWgo_tO2clykKvdEtWDcF1oLWI"
        },
        {
          "_id": "5a7ca38f880bc30001e2b050",
          "isPrimary": false,
          "url": "https://maps.googleapis.com/maps/api/place/photo?maxwidth=600&photoreference=CmRaAAAABK7CLSrTKZKfUyGsdm0l3PWkrAxpJKuaP3EWYGzxmRMlso_C-OGBJGvWjBC_96gA7HHRS72mBSsSQmWsaryWiMhuEkbBwW8kUw9i8VzyfD_N7RBgunJzwZldGXhKWW74EhDMCrrhiuaFmS0mWiqkqBdPGhSb3DFGRnbF_W-dd9d-qSQj4J4zQg&key=AIzaSyBGXLWa3UWgo_tO2clykKvdEtWDcF1oLWI"
        },
        {
          "_id": "5a7ca38f880bc30001e2b04f",
          "isPrimary": false,
          "url": "https://maps.googleapis.com/maps/api/place/photo?maxwidth=600&photoreference=CmRaAAAAEe2r4kZF5epBsa5HDhQQkbszzswuLdJ8nLatuO8D1LF7Lxs24ovQsmhPkSCA6Lr0lkCHlESjSEiarAYseOIU1nDNMzTwC4rOtKH8yk4NkS8G12EAGkXNEH2Pi5qWstGLEhB6XEEGRf__OfDTPsBjXSZWGhREKmdmW85dacPj-AvfbecpOaDIYg&key=AIzaSyBGXLWa3UWgo_tO2clykKvdEtWDcF1oLWI"
        },
        {
          "_id": "5a7ca38f880bc30001e2b04e",
          "isPrimary": false,
          "url": "https://maps.googleapis.com/maps/api/place/photo?maxwidth=600&photoreference=CmRaAAAAjd-cHVf1PvGm8Y3wJAeg-JknOPcE-siOnLRaH32DDwBJ5hwNvxoc6p3qdHqKCJkZom5yKs-NIp4hHcgB1Yex6TMVNehKZU3S5qDpECucfvTHrCblLOmiq9pD-Zwf0SQXEhCC3nBrQCQT6or8Fh9zIBMcGhQOdDZpDUDsVZNNM9XkEwG_D3MDYA&key=AIzaSyBGXLWa3UWgo_tO2clykKvdEtWDcF1oLWI"
        },
        {
          "_id": "5a7ca38f880bc30001e2b04d",
          "isPrimary": false,
          "url": "https://maps.googleapis.com/maps/api/place/photo?maxwidth=600&photoreference=CmRaAAAABqRh5Rvgg_tC8MHS-XFG2kB_jAOa2S3G_G4_caTTLKJc0nLWPLpb-KK5TqlRrcIo616QkLOvV9gKEYQXBAve027d-3uPAQLDGhPUrUG9YiDMDsSqDZVjIJZ1a1PvW3rcEhBza1-6wsPci5HZwmvXJ_KHGhQMHDo6paIn7qvxzy7GA4U4tc5cRA&key=AIzaSyBGXLWa3UWgo_tO2clykKvdEtWDcF1oLWI"
        },
        {
          "_id": "5a7ca38f880bc30001e2b04c",
          "isPrimary": false,
          "url": "https://maps.googleapis.com/maps/api/place/photo?maxwidth=600&photoreference=CmRaAAAAUgZDrTiSfrtSG1RIOpsDZMJe5TF9wqHwoU2eiEWgXwNlQNu5sO3JYAJJLcQZIdvhIjaLs0zHZPjsnDQRIYx21lndO8pumNg3-h-kKEf_2-PwvM8xrRrXymQFv-XuWtVmEhBCG1GuwZSJyxiM7iGmpWH2GhTMPjo6wfpCWfILCOJ4-XpjoLcICw&key=AIzaSyBGXLWa3UWgo_tO2clykKvdEtWDcF1oLWI"
        },
        {
          "_id": "5a7ca38f880bc30001e2b04b",
          "isPrimary": false,
          "url": "https://maps.googleapis.com/maps/api/place/photo?maxwidth=600&photoreference=CmRaAAAABcFvQkP6PN2a_jRD5c22JHbE6CrKfy7xR-4dbaRTPgiid7yf7_Y3d05zd3HKEN0tChCN25cnU2WUYFWf544-I6cEkWATavKVE7ksqMi6DiuMeV_kuDNV2ojBtTUBBiEFEhDiziS6vEeO8SO9fxS-UuytGhQETOrxYlWEuoxQWhUZjVFpFfFxug&key=AIzaSyBGXLWa3UWgo_tO2clykKvdEtWDcF1oLWI"
        },
        {
          "_id": "5a7ca38f880bc30001e2b04a",
          "isPrimary": false,
          "url": "https://maps.googleapis.com/maps/api/place/photo?maxwidth=600&photoreference=CmRaAAAAD8WA97osTQpH0fnVMFkM6xDTAyycZLdd9CmZc01GpxGxxP35C2APVG5xGj0xfedU5z_KK2fNWb1xBjnBW6-XPMW6nuRgJTb84l0SqdaOZcpIiwBJDWL7DneHgd9sXCfxEhDzaiArdDNiLqC2opZ36irIGhSEcrR0EriCRfQMHASh5QsP1xTQ1A&key=AIzaSyBGXLWa3UWgo_tO2clykKvdEtWDcF1oLWI"
        },
        {
          "_id": "5a7ca38f880bc30001e2b049",
          "isPrimary": false,
          "url": "https://maps.googleapis.com/maps/api/place/photo?maxwidth=600&photoreference=CmRaAAAAClJ9LVvH6n4jtjFdQdsjh6fF6EkYwcGs3Xi5zPpYz6lf9dokUSgG-qNJcRbZUqbXVKcR48QRQ1tgGqKbbsSaFXcdV38r9owjIIU2z_cdR83cRI2FiR699H1cxXyuQCKuEhA-pAD1EYkSwR9HJ-iX7o0fGhTH22ENUbGAqOkfq0aiTjPcPusdvw&key=AIzaSyBGXLWa3UWgo_tO2clykKvdEtWDcF1oLWI"
        },
        {
          "_id": "5a7ca38f880bc30001e2b048",
          "isPrimary": false,
          "url": "https://maps.googleapis.com/maps/api/place/photo?maxwidth=600&photoreference=CmRaAAAAYA96CRauSXC57n6erpfoVt5OW5lrlpj0rRTvqsaM48S8Hxl0DrDJO558D3KwM8hg4R1yu-EBCQjvyqoxUc6CTPiP_keHEvEvgBbcnMGKAF8rFXzHxfI-uP5Kuy_O_PfOEhCpsrpnjdxxXZ4xVWCx7N8eGhQfBLyJkwcgSma5cFn4COe1v1pUDg&key=AIzaSyBGXLWa3UWgo_tO2clykKvdEtWDcF1oLWI"
        }
      ],
      "hours": [
        {
          "open": {
            "day": 0,
            "time": 1700,
            "_id": "5ecdcbca3df92522beb1a6c3"
          },
          "_id": "5a7cd3275cf1370001650c84",
          "close": {
            "day": 0,
            "time": 2200,
            "_id": "5ecdcbca3df92522beb1a6c2"
          }
        },
        {
          "open": {
            "day": 1,
            "time": 1700,
            "_id": "5ecdcbca3df92522beb1a6bf"
          },
          "_id": "5a7cd3275cf1370001650c83",
          "close": {
            "day": 1,
            "time": 2200,
            "_id": "5ecdcbca3df92522beb1a6be"
          }
        },
        {
          "open": {
            "day": 2,
            "time": 1700,
            "_id": "5ecdcbca3df92522beb1a6bb"
          },
          "_id": "5a7cd3275cf1370001650c82",
          "close": {
            "day": 2,
            "time": 2200,
            "_id": "5ecdcbca3df92522beb1a6ba"
          }
        },
        {
          "open": {
            "day": 3,
            "time": 1700,
            "_id": "5ecdcbca3df92522beb1a6b7"
          },
          "_id": "5a7cd3275cf1370001650c81",
          "close": {
            "day": 3,
            "time": 2200,
            "_id": "5ecdcbca3df92522beb1a6b6"
          }
        },
        {
          "open": {
            "day": 4,
            "time": 1700,
            "_id": "5ecdcbca3df92522beb1a6b3"
          },
          "_id": "5a7cd3275cf1370001650c80",
          "close": {
            "day": 4,
            "time": 2200,
            "_id": "5ecdcbca3df92522beb1a6b2"
          }
        },
        {
          "open": {
            "day": 5,
            "time": 1700,
            "_id": "5ecdcbca3df92522beb1a6af"
          },
          "_id": "5a7cd3275cf1370001650c7f",
          "close": {
            "day": 5,
            "time": 2200,
            "_id": "5ecdcbca3df92522beb1a6ae"
          }
        }
      ],
      "privateOfferPhoto": []
    },
    {
      "code": null,
      "user": "5b6131c6d4f1f8000131d6af",
      "title": "Spearmint Rhino Gentleman's Club",
      "description": "",
      "status": "notify",
      "enabled": null,
      "type": "linked",
      "offerIsFreeTrial": true,
      "controlState": "managed",
      "rideContribution": 4,
      "serviceFee": 2,
      "chargeType": "automatic",
      "budget": 0,
      "private": false,
      "branchLink": "https://my.fbird.co/ZxxU/FidhSFuzXG",
      "upTo": true,
      "dailyLimit": 0,
      "weeklyLimit": 0,
      "points": 0,
      "adminDisabled": null,
      "market": "5ba53a84f65a7d002da2098c",
      "secondaryMarket": "5dae0d1c7d0fd2d31938c89e",
      "tertiaryMarket": null,
      "deleted": false,
      "_id": "59d45e6107ebd4f97b1ae84e",
      "__v": 0,
      "createdAt": "2020-04-28T21:26:44.299Z",
      "location": "59d45e5a07ebd4f97b1ae6dd",
      "updatedAt": "2020-05-27T02:09:14.437Z",
      "googlePlace": null,
      "photos": [
        {
          "_id": "59d45e998d00fd00013fdd39",
          "url": "https://ss3.4sqi.net/img/categories_v2/nightlife/stripclub_120.png",
          "isPrimary": true
        }
      ],
      "hours": [],
      "privateOfferPhoto": []
    }
  ]
}
